<?xml version="1.0" encoding="utf-8"?>
<!-- Generator: Adobe Illustrator 24.3.0, SVG Export Plug-In . SVG Version: 6.00 Build 0)  -->
<svg version="1.1" id="Layer_1" xmlns="http://www.w3.org/2000/svg" xmlns:xlink="http://www.w3.org/1999/xlink" x="0px" y="0px"
	 viewBox="0 0 22.4 22.4" style="enable-background:new 0 0 22.4 22.4;" xml:space="preserve">
<style type="text/css">
	.st0{fill:#191919;}
</style>
<path class="st0" d="M6.7,0.2c-3.6,0-6.5,2.9-6.5,6.5v9.1c0,3.6,2.9,6.5,6.5,6.5h9.1c3.6,0,6.5-2.9,6.5-6.5V6.7
	c0-3.6-2.9-6.5-6.5-6.5H6.7z M6.7,2.2h9.1c2.5,0,4.5,2,4.5,4.5v9.1c0,2.5-2,4.5-4.5,4.5H6.7c-2.5,0-4.5-2-4.5-4.5V6.7
	C2.2,4.2,4.2,2.2,6.7,2.2z M17.1,4.4c-0.5,0-0.9,0.4-0.9,0.9s0.4,0.9,0.9,0.9S18,5.8,18,5.3S17.6,4.4,17.1,4.4z M11.2,5.2
	c-3.3,0-6,2.7-6,6s2.7,6,6,6s6-2.7,6-6S14.5,5.2,11.2,5.2z M11.2,7.2c2.2,0,4,1.8,4,4s-1.8,4-4,4s-4-1.8-4-4S9,7.2,11.2,7.2z"/>
</svg>
